^C:\USERS\ESERROSE\APPDATA\ROAMING\NPM\NODE_MODULES\NODE-GYP\SRC\WIN_DELAY_LOAD_HOOK.CC|D:\THIS FOLDER\MATERIALS\CODING\WEBDEVELOPER\CPPADDONS\SRC\GREETING.CPP|D:\THIS FOLDER\MATERIALS\CODING\WEBDEVELOPER\CPPADDONS\SRC\INDEX.CPP
D:\THIS FOLDER\MATERIALS\CODING\WEBDEVELOPER\CPPADDONS\BUILD\RELEASE\OBJ\GREET\INDEX.OBJ
D:\THIS FOLDER\MATERIALS\CODING\WEBDEVELOPER\CPPADDONS\BUILD\RELEASE\OBJ\GREET\WIN_DELAY_LOAD_HOOK.OBJ
D:\THIS FOLDER\MATERIALS\CODING\WEBDEVELOPER\CPPADDONS\BUILD\RELEASE\OBJ\GREET\GREETING.OBJ
